<?xml version="1.0" encoding="UTF-8" standalone="no"?>
<!-- Created with Inkscape (http://www.inkscape.org/) -->

<svg
   version="1.1"
   id="svg1"
   width="260"
   height="260"
   viewBox="0 0 260 260"
   sodipodi:docname="logo_physique_chimie.svg"
   inkscape:version="1.3 (0e150ed6c4, 2023-07-21)"
   xmlns:inkscape="http://www.inkscape.org/namespaces/inkscape"
   xmlns:sodipodi="http://sodipodi.sourceforge.net/DTD/sodipodi-0.dtd"
   xmlns="http://www.w3.org/2000/svg"
   xmlns:svg="http://www.w3.org/2000/svg">
  <defs
     id="defs1" />
  <sodipodi:namedview
     id="namedview1"
     pagecolor="#ffffff"
     bordercolor="#666666"
     borderopacity="1.0"
     inkscape:showpageshadow="2"
     inkscape:pageopacity="0.0"
     inkscape:pagecheckerboard="0"
     inkscape:deskcolor="#d1d1d1"
     inkscape:zoom="1.076978"
     inkscape:cx="-172.70547"
     inkscape:cy="101.67338"
     inkscape:window-width="1920"
     inkscape:window-height="1043"
     inkscape:window-x="0"
     inkscape:window-y="0"
     inkscape:window-maximized="1"
     inkscape:current-layer="g1" />
  <g
     inkscape:groupmode="layer"
     inkscape:label="Image"
     id="g1">
    <g
       id="g9">
      <g
         id="g7"
         transform="matrix(1.4994612,0,0,1.4996831,-64.807357,-83.562923)"
         style="stroke-width:0.666857">
        <path
           id="path3-3"
           style="opacity:1;fill:#0f8168;fill-opacity:1;stroke:#0e7f67;stroke-width:0.666856;stroke-linecap:round;stroke-linejoin:round;stroke-dasharray:none;stroke-opacity:1"
           d="M 159.79297,90.898438 A 37.732487,39.008774 0 0 0 133.9043,101.7832 c 3.18723,7.37664 4.16073,14.05619 3.68359,20.01563 a 22.993263,23.777523 0 0 1 21.46094,-15.51563 22.993263,23.777523 0 0 1 16.86914,7.63282 l 10.95312,-11.18555 A 37.732487,39.008774 0 0 0 159.79297,90.898438 Z m -23.57031,38.201172 c -2.10713,7.08838 -6.19129,12.87375 -10.46289,17.31055 a 37.732487,39.008774 0 0 0 34.21484,22.50586 37.732487,39.008774 0 0 0 27.07227,-12.01758 l -11.03711,-10.69532 a 22.993263,23.777523 0 0 1 -16.84961,7.63672 22.993263,23.777523 0 0 1 -23.02149,-23.7207 22.993263,23.777523 0 0 1 0.084,-1.01953 z" />
        <path
           id="path1"
           style="fill:#14b996;fill-opacity:1;stroke:#24a78c;stroke-width:0.666857px;stroke-linecap:butt;stroke-linejoin:miter;stroke-opacity:1"
           d="m 73.361328,90.929688 v 77.527342 h 14.246094 v -23.55664 h 8.990234 c 38.473084,0 42.583964,-53.970702 -0.976562,-53.970702 z m 23.488281,15.917972 c 1.329607,-0.0121 2.586715,0.0265 4.132811,0.18164 13.87702,1.39223 13.1346,23.13672 0,23.13672 H 87.931641 V 107.0293 c 4.285725,10e-6 6.701958,-0.16144 8.917968,-0.18164 z" />
      </g>
      <text
         xml:space="preserve"
         style="font-style:normal;font-variant:normal;font-weight:normal;font-stretch:normal;font-size:27.1454px;line-height:1.25;font-family:C059;-inkscape-font-specification:C059;stroke-width:1;fill:#000c00;fill-opacity:1"
         x="41.230717"
         y="201.20747"
         id="text7"
         transform="scale(0.99992601,1.000074)"><tspan
           sodipodi:role="line"
           id="tspan7"
           x="41.230717"
           y="201.20747"
           style="font-style:normal;font-variant:normal;font-weight:normal;font-stretch:normal;font-family:'open sans light';-inkscape-font-specification:'open sans light, ';stroke-width:1;fill:#000c00;fill-opacity:1">Lycée Bossuet</tspan></text>
      <text
         xml:space="preserve"
         style="font-style:normal;font-variant:normal;font-weight:normal;font-stretch:normal;font-size:38.9524px;line-height:1.25;font-family:C059;-inkscape-font-specification:C059;stroke-width:0.999999;opacity:0.44386873"
         x="161.76111"
         y="127.63989"
         id="text8"
         transform="scale(0.99992601,1.000074)"><tspan
           sodipodi:role="line"
           id="tspan8"
           x="161.76111"
           y="127.63989"
           style="stroke-width:0.999999">2<tspan
   style="font-size:25.3192px;baseline-shift:super;stroke-width:0.999999"
   id="tspan9">nd</tspan></tspan></text>
    </g>
  </g>
</svg>
